Data curation, coding style and sharing data
…
Transform to long format

library(tidyverse)
# this avoids tidyverse conflicts with the base function filter
conflicted::conflict_prefer("filter", "dplyr")
# Pivot longer 
penguins_long<-penguins |> 
  pivot_longer(contains("_"),
               names_to = c("part", "measure" , "unit"),
               names_sep = "_")

penguins_long

# A tibble: 1,376 x 8
   species island    sex     year part    measure unit   value
   <fct>   <fct>     <fct>  <int> <chr>   <chr>   <chr>  <dbl>
 1 Adelie  Torgersen male    2007 bill    length  mm      39.1
 2 Adelie  Torgersen male    2007 bill    depth   mm      18.7
 3 Adelie  Torgersen male    2007 flipper length  mm     181  
 4 Adelie  Torgersen male    2007 body    mass    g     3750  
 5 Adelie  Torgersen female  2007 bill    length  mm      39.5
 6 Adelie  Torgersen female  2007 bill    depth   mm      17.4
 7 Adelie  Torgersen female  2007 flipper length  mm     186  
 8 Adelie  Torgersen female  2007 body    mass    g     3800  
 9 Adelie  Torgersen female  2007 bill    length  mm      40.3
10 Adelie  Torgersen female  2007 bill    depth   mm      18  
# ... with 1,366 more rows

Transform to wide format

penguins_long |> 
  pivot_wider(names_from = species, 
              values_from = value)

# A tibble: 92 x 9
   island    sex     year part    measure unit  Adelie    Gentoo Chinstrap
   <fct>     <fct>  <int> <chr>   <chr>   <chr> <list>    <list> <list>   
 1 Torgersen male    2007 bill    length  mm    <dbl [7]> <NULL> <NULL>   
 2 Torgersen male    2007 bill    depth   mm    <dbl [7]> <NULL> <NULL>   
 3 Torgersen male    2007 flipper length  mm    <dbl [7]> <NULL> <NULL>   
 4 Torgersen male    2007 body    mass    g     <dbl [7]> <NULL> <NULL>   
 5 Torgersen female  2007 bill    length  mm    <dbl [8]> <NULL> <NULL>   
 6 Torgersen female  2007 bill    depth   mm    <dbl [8]> <NULL> <NULL>   
 7 Torgersen female  2007 flipper length  mm    <dbl [8]> <NULL> <NULL>   
 8 Torgersen female  2007 body    mass    g     <dbl [8]> <NULL> <NULL>   
 9 Torgersen <NA>    2007 bill    length  mm    <dbl [5]> <NULL> <NULL>   
10 Torgersen <NA>    2007 bill    depth   mm    <dbl [5]> <NULL> <NULL>   
# ... with 82 more rows

What’s going on?

No identifier for each observation so R puts all the values in a list. To solve this we need a unique row id.

penguins_long |> 
  mutate(sample=row_number()) |> 
  pivot_wider(names_from = species, 
              values_from = value)

# A tibble: 1,376 x 10
   island    sex     year part    measure unit  sample Adelie Gentoo Chinstrap
   <fct>     <fct>  <int> <chr>   <chr>   <chr>  <int>  <dbl>  <dbl>     <dbl>
 1 Torgersen male    2007 bill    length  mm         1   39.1     NA        NA
 2 Torgersen male    2007 bill    depth   mm         2   18.7     NA        NA
 3 Torgersen male    2007 flipper length  mm         3  181       NA        NA
 4 Torgersen male    2007 body    mass    g          4 3750       NA        NA
 5 Torgersen female  2007 bill    length  mm         5   39.5     NA        NA
 6 Torgersen female  2007 bill    depth   mm         6   17.4     NA        NA
 7 Torgersen female  2007 flipper length  mm         7  186       NA        NA
 8 Torgersen female  2007 body    mass    g          8 3800       NA        NA
 9 Torgersen female  2007 bill    length  mm         9   40.3     NA        NA
10 Torgersen female  2007 bill    depth   mm        10   18       NA        NA
# ... with 1,366 more rows
…
occurence <- as_tibble(read.table(unz(localDataLoc, "occurrence.txt"),
                                  header=T,sep="\t", quote=""))
measure <- as_tibble(read.table(unz(localDataLoc, "measurementorfact.txt"),
                                header=T,sep="\t", quote=""))
## You need to unzip the eml before read_eml() will work
f <- unzip(localDataLoc, "eml.xml")
eml=EML::read_eml(f)

occurence

# A tibble: 34,112 x 32
        id modif~1 insti~2 colle~3 basis~4 dynam~5 occur~6 catal~7 occur~8   sex
     <int> <chr>   <chr>   <chr>   <chr>   <chr>     <int>   <int> <chr>   <int>
 1 5215659 2022-0~ NINA    Fiskme~ HumanO~ "\"{\"~ 5215659 5215659 ""         NA
 2 5294435 2022-0~ NINA    Fiskme~ HumanO~ "\"{\"~ 5294435 5294435 ""         NA
 3 5294765 2022-0~ NINA    Fiskme~ HumanO~ "\"{\"~ 5294765 5294765 ""         NA
 4 5814209 2020-1~ NINA    Fiskme~ HumanO~ "\"{\"~ 5814209 5814209 ""          2
 5 5814125 2020-0~ NINA    Fiskme~ Preser~ "\"{\"~ 5814125 5814125 "Ikke ~     1
 6 5814152 2020-0~ NINA    Fiskme~ Preser~ "\"{\"~ 5814152 5814152 "Fiske~     2
 7 5815714 2020-1~ NINA    Fiskme~ HumanO~ "\"{\"~ 5815714 5815714 "Fange~    NA
 8 5294610 2022-0~ NINA    Fiskme~ HumanO~ "\"{\"~ 5294610 5294610 ""         NA
 9 5814196 2020-0~ NINA    Fiskme~ Preser~ "\"{\"~ 5814196 5814196 "Ã…pne~     2
10 5823633 2022-0~ NINA    Fiskme~ HumanO~ "\"{\"~ 5823633 5823633 "Gjenf~     2
# ... with 34,102 more rows, 22 more variables: lifeStage <chr>,
#   associatedReferences <chr>, samplingProtocol <chr>, year <int>,
#   month <int>, day <int>, country <chr>, stateProvince <chr>, county <chr>,
#   locality <chr>, decimalLatitude <dbl>, decimalLongitude <dbl>,
#   coordinatePrecision <int>, scientificName <chr>, kingdom <chr>,
#   phylum <chr>, class <chr>, order <chr>, family <chr>, genus <chr>,
#   specificEpithet <chr>, vernacularName <chr>, and abbreviated variable ...

measure 

# A tibble: 68,224 x 4
        id measurementType measurementValue measurementUnit
     <int> <chr>           <chr>            <chr>          
 1 5215659 Weight          gram             "4500"         
 2 5294610 Weight          gram             "4500"         
 3 5294435 Weight          gram             "4800"         
 4 5294765 Weight          gram             "3500"         
 5 5814209 Weight          gram             "11200"        
 6 5814125 Weight          gram             "3600"         
 7 5814152 Weight          gram             "3900"         
 8 5815714 Weight          gram             ""             
 9 5814196 Weight          gram             "2500"         
10 5823633 Weight          gram             "10900"        
# ... with 68,214 more rows
…
